{
  "base_url": "/user/terziimourad-mt15-2021-2vpkkf3t/",
  "hostname": "0.0.0.0",
  "notebook_dir": "/home/jovyan",
  "password": false,
  "pid": 25,
  "port": 8888,
  "secure": false,
  "sock": "",
  "token": "rduwHyJkRreHp5itpAmedA",
  "url": "http://0.0.0.0:8888/user/terziimourad-mt15-2021-2vpkkf3t/"
}